<mxfile host="app.diagrams.net" modified="2023-05-03T07:58:08.998Z" agent="Mozilla/5.0 (Windows NT 10.0; Win64; x64; rv:109.0) Gecko/20100101 Firefox/112.0" etag="XnUue-FXA1gCW67kLAnG" version="21.1.5" type="gitlab">
  <diagram name="Page-1" id="L6_8pXyTxGPuy4Av_NG-">
    <mxGraphModel dx="2252" dy="1279" grid="1" gridSize="5" guides="1" tooltips="1" connect="1" arrows="1" fold="1" page="1" pageScale="1" pageWidth="850" pageHeight="1100" math="0" shadow="0">
      <root>
        <mxCell id="0" />
        <mxCell id="1" parent="0" />
        <mxCell id="KgxkDXil28p1DpwNapKy-150" value="" style="whiteSpace=wrap;html=1;fillColor=#fff2cc;strokeColor=#d6b656;" vertex="1" parent="1">
          <mxGeometry x="150" y="1290" width="280" height="405" as="geometry" />
        </mxCell>
        <mxCell id="KgxkDXil28p1DpwNapKy-65" value="" style="rounded=0;whiteSpace=wrap;html=1;fillColor=none;dashed=1;" vertex="1" parent="1">
          <mxGeometry x="530" y="595" width="285" height="155" as="geometry" />
        </mxCell>
        <mxCell id="KgxkDXil28p1DpwNapKy-24" value="" style="edgeStyle=orthogonalEdgeStyle;rounded=0;orthogonalLoop=1;jettySize=auto;html=1;" edge="1" parent="1" source="KgxkDXil28p1DpwNapKy-2" target="KgxkDXil28p1DpwNapKy-13">
          <mxGeometry relative="1" as="geometry" />
        </mxCell>
        <mxCell id="KgxkDXil28p1DpwNapKy-2" value="&lt;div&gt;Determine max &quot;relief&quot; angle,&lt;/div&gt;&lt;div&gt;φ&lt;br&gt;&lt;/div&gt;" style="rounded=1;whiteSpace=wrap;html=1;" vertex="1" parent="1">
          <mxGeometry x="200" y="85" width="120" height="60" as="geometry" />
        </mxCell>
        <mxCell id="KgxkDXil28p1DpwNapKy-3" value="&lt;b&gt;&lt;font style=&quot;font-size: 17px;&quot;&gt;Sheave Pivot Design&lt;/font&gt;&lt;/b&gt;" style="text;html=1;align=center;verticalAlign=middle;resizable=0;points=[];autosize=1;strokeColor=#b85450;fillColor=#f8cecc;" vertex="1" parent="1">
          <mxGeometry x="350" y="15" width="210" height="30" as="geometry" />
        </mxCell>
        <mxCell id="KgxkDXil28p1DpwNapKy-4" value="" style="ellipse;whiteSpace=wrap;html=1;aspect=fixed;" vertex="1" parent="1">
          <mxGeometry x="370" y="92" width="30" height="30" as="geometry" />
        </mxCell>
        <mxCell id="KgxkDXil28p1DpwNapKy-5" value="" style="endArrow=none;html=1;rounded=0;entryX=0;entryY=0;entryDx=0;entryDy=0;" edge="1" parent="1" target="KgxkDXil28p1DpwNapKy-4">
          <mxGeometry width="50" height="50" relative="1" as="geometry">
            <mxPoint x="335" y="127" as="sourcePoint" />
            <mxPoint x="340" y="162" as="targetPoint" />
          </mxGeometry>
        </mxCell>
        <mxCell id="KgxkDXil28p1DpwNapKy-6" value="" style="endArrow=none;dashed=1;html=1;rounded=0;" edge="1" parent="1">
          <mxGeometry width="50" height="50" relative="1" as="geometry">
            <mxPoint x="385" y="132" as="sourcePoint" />
            <mxPoint x="385" y="77" as="targetPoint" />
          </mxGeometry>
        </mxCell>
        <mxCell id="KgxkDXil28p1DpwNapKy-7" value="" style="endArrow=none;dashed=1;html=1;rounded=0;" edge="1" parent="1">
          <mxGeometry width="50" height="50" relative="1" as="geometry">
            <mxPoint x="350" y="107" as="sourcePoint" />
            <mxPoint x="420" y="107" as="targetPoint" />
          </mxGeometry>
        </mxCell>
        <mxCell id="KgxkDXil28p1DpwNapKy-11" value="" style="endArrow=none;html=1;curved=1;fillColor=#f8cecc;strokeColor=#b85450;" edge="1" parent="1">
          <mxGeometry width="50" height="50" relative="1" as="geometry">
            <mxPoint x="385" y="130" as="sourcePoint" />
            <mxPoint x="351" y="116" as="targetPoint" />
            <Array as="points">
              <mxPoint x="357" y="144" />
            </Array>
          </mxGeometry>
        </mxCell>
        <mxCell id="KgxkDXil28p1DpwNapKy-12" value="&lt;font color=&quot;#ea6b66&quot;&gt;φ&lt;/font&gt;" style="text;html=1;align=center;verticalAlign=middle;resizable=0;points=[];autosize=1;" vertex="1" parent="1">
          <mxGeometry x="342" y="127" width="26" height="26" as="geometry" />
        </mxCell>
        <mxCell id="KgxkDXil28p1DpwNapKy-26" style="edgeStyle=orthogonalEdgeStyle;rounded=0;orthogonalLoop=1;jettySize=auto;html=1;exitX=0.5;exitY=1;exitDx=0;exitDy=0;" edge="1" parent="1" source="KgxkDXil28p1DpwNapKy-13" target="KgxkDXil28p1DpwNapKy-22">
          <mxGeometry relative="1" as="geometry" />
        </mxCell>
        <mxCell id="KgxkDXil28p1DpwNapKy-13" value="Choose allowed pivot angle " style="rounded=1;whiteSpace=wrap;html=1;" vertex="1" parent="1">
          <mxGeometry x="200" y="175.5" width="120" height="60" as="geometry" />
        </mxCell>
        <mxCell id="KgxkDXil28p1DpwNapKy-14" value="&lt;div&gt;Pivot angle be less&amp;nbsp; than φ, &lt;br&gt;&lt;/div&gt;&lt;div&gt;otherwise there will be no&lt;/div&gt;&lt;div&gt;tension on the first sheave&lt;/div&gt;&lt;div&gt;and an angle of φ on the&lt;/div&gt;&lt;div&gt;second sheave&lt;br&gt;&lt;/div&gt;" style="text;html=1;align=center;verticalAlign=middle;resizable=0;points=[];autosize=1;strokeColor=none;fillColor=none;" vertex="1" parent="1">
          <mxGeometry x="430" y="168.25" width="180" height="90" as="geometry" />
        </mxCell>
        <mxCell id="KgxkDXil28p1DpwNapKy-15" value="" style="ellipse;whiteSpace=wrap;html=1;aspect=fixed;" vertex="1" parent="1">
          <mxGeometry x="640" y="218.25" width="30" height="30" as="geometry" />
        </mxCell>
        <mxCell id="KgxkDXil28p1DpwNapKy-16" value="" style="ellipse;whiteSpace=wrap;html=1;aspect=fixed;" vertex="1" parent="1">
          <mxGeometry x="690" y="173.25" width="30" height="30" as="geometry" />
        </mxCell>
        <mxCell id="KgxkDXil28p1DpwNapKy-17" value="" style="endArrow=none;html=1;rounded=0;entryX=0;entryY=0;entryDx=0;entryDy=0;exitX=0;exitY=0;exitDx=0;exitDy=0;" edge="1" parent="1" source="KgxkDXil28p1DpwNapKy-15" target="KgxkDXil28p1DpwNapKy-16">
          <mxGeometry width="50" height="50" relative="1" as="geometry">
            <mxPoint x="636" y="218.75" as="sourcePoint" />
            <mxPoint x="690" y="172.75" as="targetPoint" />
          </mxGeometry>
        </mxCell>
        <mxCell id="KgxkDXil28p1DpwNapKy-18" value="" style="endArrow=none;html=1;rounded=0;entryX=0.5;entryY=0;entryDx=0;entryDy=0;" edge="1" parent="1" target="KgxkDXil28p1DpwNapKy-16">
          <mxGeometry width="50" height="50" relative="1" as="geometry">
            <mxPoint x="770" y="172.75" as="sourcePoint" />
            <mxPoint x="780" y="197.75" as="targetPoint" />
          </mxGeometry>
        </mxCell>
        <mxCell id="KgxkDXil28p1DpwNapKy-21" value="" style="rounded=0;whiteSpace=wrap;html=1;fillColor=none;dashed=1;" vertex="1" parent="1">
          <mxGeometry x="435" y="152.75" width="345" height="105" as="geometry" />
        </mxCell>
        <mxCell id="KgxkDXil28p1DpwNapKy-27" value="" style="edgeStyle=orthogonalEdgeStyle;rounded=0;orthogonalLoop=1;jettySize=auto;html=1;" edge="1" parent="1" source="KgxkDXil28p1DpwNapKy-22" target="KgxkDXil28p1DpwNapKy-23">
          <mxGeometry relative="1" as="geometry" />
        </mxCell>
        <mxCell id="KgxkDXil28p1DpwNapKy-22" value="Calculate wire rope angle from FEM code (BC changed)" style="rounded=1;whiteSpace=wrap;html=1;" vertex="1" parent="1">
          <mxGeometry x="200" y="265" width="120" height="60" as="geometry" />
        </mxCell>
        <mxCell id="KgxkDXil28p1DpwNapKy-28" style="edgeStyle=orthogonalEdgeStyle;rounded=0;orthogonalLoop=1;jettySize=auto;html=1;entryX=1;entryY=0.5;entryDx=0;entryDy=0;" edge="1" parent="1" source="KgxkDXil28p1DpwNapKy-23" target="KgxkDXil28p1DpwNapKy-13">
          <mxGeometry relative="1" as="geometry">
            <Array as="points">
              <mxPoint x="365" y="385" />
              <mxPoint x="365" y="206" />
            </Array>
          </mxGeometry>
        </mxCell>
        <mxCell id="KgxkDXil28p1DpwNapKy-34" style="edgeStyle=orthogonalEdgeStyle;rounded=0;orthogonalLoop=1;jettySize=auto;html=1;exitX=0.5;exitY=1;exitDx=0;exitDy=0;" edge="1" parent="1" source="KgxkDXil28p1DpwNapKy-23" target="KgxkDXil28p1DpwNapKy-31">
          <mxGeometry relative="1" as="geometry" />
        </mxCell>
        <mxCell id="KgxkDXil28p1DpwNapKy-23" value="&lt;div&gt;φ&lt;sub&gt;resulting&lt;/sub&gt; &amp;gt;&lt;/div&gt;&lt;div&gt;φ&lt;sub&gt;allowed&lt;/sub&gt;&lt;br&gt;&lt;/div&gt;" style="rhombus;whiteSpace=wrap;html=1;" vertex="1" parent="1">
          <mxGeometry x="220" y="345" width="80" height="80" as="geometry" />
        </mxCell>
        <mxCell id="KgxkDXil28p1DpwNapKy-35" style="edgeStyle=orthogonalEdgeStyle;rounded=0;orthogonalLoop=1;jettySize=auto;html=1;exitX=0.5;exitY=1;exitDx=0;exitDy=0;" edge="1" parent="1" source="KgxkDXil28p1DpwNapKy-31" target="KgxkDXil28p1DpwNapKy-32">
          <mxGeometry relative="1" as="geometry" />
        </mxCell>
        <mxCell id="KgxkDXil28p1DpwNapKy-31" value="Calculate loads on the sheaves" style="rounded=1;whiteSpace=wrap;html=1;" vertex="1" parent="1">
          <mxGeometry x="200" y="450" width="120" height="60" as="geometry" />
        </mxCell>
        <mxCell id="KgxkDXil28p1DpwNapKy-38" style="edgeStyle=orthogonalEdgeStyle;rounded=0;orthogonalLoop=1;jettySize=auto;html=1;entryX=0.5;entryY=0;entryDx=0;entryDy=0;" edge="1" parent="1" source="KgxkDXil28p1DpwNapKy-32" target="KgxkDXil28p1DpwNapKy-37">
          <mxGeometry relative="1" as="geometry" />
        </mxCell>
        <mxCell id="KgxkDXil28p1DpwNapKy-32" value="&lt;div&gt;Determine enhanced friction coefficient, f&lt;/div&gt;" style="rounded=1;whiteSpace=wrap;html=1;" vertex="1" parent="1">
          <mxGeometry x="200" y="535" width="120" height="60" as="geometry" />
        </mxCell>
        <mxCell id="KgxkDXil28p1DpwNapKy-36" value="" style="endArrow=none;dashed=1;html=1;dashPattern=1 3;strokeWidth=2;rounded=0;entryX=0;entryY=0;entryDx=0;entryDy=0;exitX=1;exitY=0;exitDx=0;exitDy=0;" edge="1" parent="1" source="KgxkDXil28p1DpwNapKy-13" target="KgxkDXil28p1DpwNapKy-21">
          <mxGeometry width="50" height="50" relative="1" as="geometry">
            <mxPoint x="465" y="375" as="sourcePoint" />
            <mxPoint x="515" y="325" as="targetPoint" />
            <Array as="points">
              <mxPoint x="375" y="155" />
            </Array>
          </mxGeometry>
        </mxCell>
        <mxCell id="KgxkDXil28p1DpwNapKy-42" value="" style="edgeStyle=orthogonalEdgeStyle;rounded=0;orthogonalLoop=1;jettySize=auto;html=1;" edge="1" parent="1" source="KgxkDXil28p1DpwNapKy-37" target="KgxkDXil28p1DpwNapKy-39">
          <mxGeometry relative="1" as="geometry" />
        </mxCell>
        <mxCell id="KgxkDXil28p1DpwNapKy-45" style="edgeStyle=orthogonalEdgeStyle;rounded=0;orthogonalLoop=1;jettySize=auto;html=1;exitX=0.5;exitY=1;exitDx=0;exitDy=0;entryX=0.5;entryY=0;entryDx=0;entryDy=0;" edge="1" parent="1" source="KgxkDXil28p1DpwNapKy-37" target="KgxkDXil28p1DpwNapKy-44">
          <mxGeometry relative="1" as="geometry" />
        </mxCell>
        <mxCell id="KgxkDXil28p1DpwNapKy-37" value="&lt;div&gt;f &amp;gt; than &lt;br&gt;&lt;/div&gt;&lt;div&gt;desired&lt;br&gt;&lt;/div&gt;" style="rhombus;whiteSpace=wrap;html=1;" vertex="1" parent="1">
          <mxGeometry x="220" y="620" width="80" height="80" as="geometry" />
        </mxCell>
        <mxCell id="KgxkDXil28p1DpwNapKy-43" style="edgeStyle=orthogonalEdgeStyle;rounded=0;orthogonalLoop=1;jettySize=auto;html=1;entryX=1;entryY=0.417;entryDx=0;entryDy=0;entryPerimeter=0;exitX=0.453;exitY=0.01;exitDx=0;exitDy=0;exitPerimeter=0;" edge="1" parent="1" source="KgxkDXil28p1DpwNapKy-39" target="KgxkDXil28p1DpwNapKy-31">
          <mxGeometry relative="1" as="geometry">
            <Array as="points">
              <mxPoint x="404" y="475" />
            </Array>
          </mxGeometry>
        </mxCell>
        <mxCell id="KgxkDXil28p1DpwNapKy-39" value="&lt;div&gt;Add shieve pairs, decreasing pivot&lt;/div&gt;&lt;div&gt;angle&lt;br&gt;&lt;/div&gt;" style="rounded=1;whiteSpace=wrap;html=1;" vertex="1" parent="1">
          <mxGeometry x="350" y="630" width="120" height="60" as="geometry" />
        </mxCell>
        <mxCell id="KgxkDXil28p1DpwNapKy-40" value="Yes" style="text;html=1;align=center;verticalAlign=middle;resizable=0;points=[];autosize=1;strokeColor=none;fillColor=none;" vertex="1" parent="1">
          <mxGeometry x="305" y="360" width="40" height="30" as="geometry" />
        </mxCell>
        <mxCell id="KgxkDXil28p1DpwNapKy-41" value="Yes" style="text;html=1;align=center;verticalAlign=middle;resizable=0;points=[];autosize=1;strokeColor=none;fillColor=none;" vertex="1" parent="1">
          <mxGeometry x="300" y="635" width="40" height="30" as="geometry" />
        </mxCell>
        <mxCell id="KgxkDXil28p1DpwNapKy-44" value="&lt;div&gt;Pivot design ready, &lt;br&gt;&lt;/div&gt;&lt;div&gt;proceed to bearing &lt;br&gt;&lt;/div&gt;&lt;div&gt;and bushing&lt;/div&gt;&lt;div&gt;selection&lt;br&gt;&lt;/div&gt;" style="ellipse;whiteSpace=wrap;html=1;" vertex="1" parent="1">
          <mxGeometry x="190" y="745" width="140" height="90" as="geometry" />
        </mxCell>
        <mxCell id="KgxkDXil28p1DpwNapKy-51" value="" style="group;rotation=-30;" vertex="1" connectable="0" parent="1">
          <mxGeometry x="580" y="675" width="100" height="30" as="geometry" />
        </mxCell>
        <mxCell id="KgxkDXil28p1DpwNapKy-48" value="" style="ellipse;whiteSpace=wrap;html=1;aspect=fixed;fillColor=none;points=[[0,0,0,0,0],[0,0.5,0,0,0],[0,0.5,0,15,0],[0,1,0,0,0],[0.5,0,0,0,0],[0.5,1,0,0,0],[1,0,0,0,0],[1,0.5,0,0,0],[1,1,0,0,0]];rotation=-30;" vertex="1" parent="KgxkDXil28p1DpwNapKy-51">
          <mxGeometry x="4" y="18" width="30" height="30" as="geometry" />
        </mxCell>
        <mxCell id="KgxkDXil28p1DpwNapKy-49" value="" style="ellipse;whiteSpace=wrap;html=1;aspect=fixed;fillColor=none;points=[[0,0,0,0,0],[0,0.5,0,0,0],[0,0.5,0,15,0],[0,1,0,0,0],[0.5,0,0,0,0],[0.5,1,0,0,0],[1,0,0,0,0],[1,0.5,0,0,0],[1,1,0,0,0]];rotation=-30;" vertex="1" parent="KgxkDXil28p1DpwNapKy-51">
          <mxGeometry x="66" y="-18" width="30" height="30" as="geometry" />
        </mxCell>
        <mxCell id="KgxkDXil28p1DpwNapKy-46" value="" style="endArrow=none;html=1;rounded=0;entryX=0;entryY=0.5;entryDx=15;entryDy=0;entryPerimeter=0;strokeWidth=3;exitX=0;exitY=0.5;exitDx=15;exitDy=0;exitPerimeter=0;" edge="1" parent="KgxkDXil28p1DpwNapKy-51" source="KgxkDXil28p1DpwNapKy-49" target="KgxkDXil28p1DpwNapKy-48">
          <mxGeometry width="50" height="50" relative="1" as="geometry">
            <mxPoint x="72" y="2" as="sourcePoint" />
            <mxPoint x="6" y="39" as="targetPoint" />
          </mxGeometry>
        </mxCell>
        <mxCell id="KgxkDXil28p1DpwNapKy-62" value="" style="endArrow=none;html=1;rounded=0;entryX=0.5;entryY=0;entryDx=0;entryDy=0;entryPerimeter=0;exitX=0.5;exitY=0;exitDx=0;exitDy=0;exitPerimeter=0;" edge="1" parent="KgxkDXil28p1DpwNapKy-51" source="KgxkDXil28p1DpwNapKy-48" target="KgxkDXil28p1DpwNapKy-49">
          <mxGeometry width="50" height="50" relative="1" as="geometry">
            <mxPoint x="78" y="110" as="sourcePoint" />
            <mxPoint x="120" y="65" as="targetPoint" />
          </mxGeometry>
        </mxCell>
        <mxCell id="KgxkDXil28p1DpwNapKy-52" value="" style="endArrow=none;html=1;rounded=0;entryX=0.5;entryY=0;entryDx=0;entryDy=0;entryPerimeter=0;" edge="1" parent="1" target="KgxkDXil28p1DpwNapKy-48">
          <mxGeometry width="50" height="50" relative="1" as="geometry">
            <mxPoint x="550" y="740" as="sourcePoint" />
            <mxPoint x="579" y="720" as="targetPoint" />
          </mxGeometry>
        </mxCell>
        <mxCell id="KgxkDXil28p1DpwNapKy-53" value="" style="endArrow=none;html=1;rounded=0;strokeWidth=3;" edge="1" parent="1">
          <mxGeometry width="50" height="50" relative="1" as="geometry">
            <mxPoint x="630" y="690" as="sourcePoint" />
            <mxPoint x="630" y="640" as="targetPoint" />
          </mxGeometry>
        </mxCell>
        <mxCell id="KgxkDXil28p1DpwNapKy-56" value="" style="group;rotation=-15;" vertex="1" connectable="0" parent="1">
          <mxGeometry x="700" y="625" width="100" height="30" as="geometry" />
        </mxCell>
        <mxCell id="KgxkDXil28p1DpwNapKy-57" value="" style="ellipse;whiteSpace=wrap;html=1;aspect=fixed;fillColor=none;points=[[0,0,0,0,0],[0,0.5,0,0,0],[0,0.5,0,15,0],[0,1,0,0,0],[0.5,0,0,0,0],[0.5,1,0,0,0],[1,0,0,0,0],[1,0.5,0,0,0],[1,1,0,0,0]];rotation=-370;" vertex="1" parent="KgxkDXil28p1DpwNapKy-56">
          <mxGeometry x="-1" y="6" width="30" height="30" as="geometry" />
        </mxCell>
        <mxCell id="KgxkDXil28p1DpwNapKy-58" value="" style="ellipse;whiteSpace=wrap;html=1;aspect=fixed;fillColor=none;points=[[0,0,0,0,0],[0,0.5,0,0,0],[0,0.5,0,15,0],[0,1,0,0,0],[0.5,0,0,0,0],[0.5,1,0,0,0],[1,0,0,0,0],[1,0.5,0,0,0],[1,1,0,0,0]];rotation=-370;" vertex="1" parent="KgxkDXil28p1DpwNapKy-56">
          <mxGeometry x="71" y="-6" width="30" height="30" as="geometry" />
        </mxCell>
        <mxCell id="KgxkDXil28p1DpwNapKy-59" value="" style="endArrow=none;html=1;rounded=0;entryX=0;entryY=0.5;entryDx=15;entryDy=0;entryPerimeter=0;strokeWidth=3;exitX=0;exitY=0.5;exitDx=15;exitDy=0;exitPerimeter=0;" edge="1" parent="KgxkDXil28p1DpwNapKy-56" source="KgxkDXil28p1DpwNapKy-58" target="KgxkDXil28p1DpwNapKy-57">
          <mxGeometry width="50" height="50" relative="1" as="geometry">
            <mxPoint x="75" y="10" as="sourcePoint" />
            <mxPoint y="22" as="targetPoint" />
          </mxGeometry>
        </mxCell>
        <mxCell id="KgxkDXil28p1DpwNapKy-63" value="" style="endArrow=none;html=1;rounded=0;entryX=0.5;entryY=0;entryDx=0;entryDy=0;entryPerimeter=0;exitX=0.5;exitY=0;exitDx=0;exitDy=0;exitPerimeter=0;" edge="1" parent="KgxkDXil28p1DpwNapKy-56" source="KgxkDXil28p1DpwNapKy-58" target="KgxkDXil28p1DpwNapKy-57">
          <mxGeometry width="50" height="50" relative="1" as="geometry">
            <mxPoint x="38" y="87.5" as="sourcePoint" />
            <mxPoint x="80" y="42.5" as="targetPoint" />
          </mxGeometry>
        </mxCell>
        <mxCell id="KgxkDXil28p1DpwNapKy-60" value="" style="endArrow=none;html=1;rounded=0;entryX=0.5;entryY=0;entryDx=0;entryDy=0;entryPerimeter=0;exitX=0.5;exitY=0;exitDx=0;exitDy=0;exitPerimeter=0;" edge="1" parent="1" source="KgxkDXil28p1DpwNapKy-57" target="KgxkDXil28p1DpwNapKy-49">
          <mxGeometry width="50" height="50" relative="1" as="geometry">
            <mxPoint x="675" y="796" as="sourcePoint" />
            <mxPoint x="742" y="725" as="targetPoint" />
          </mxGeometry>
        </mxCell>
        <mxCell id="KgxkDXil28p1DpwNapKy-61" value="" style="endArrow=none;html=1;rounded=0;strokeWidth=3;" edge="1" parent="1">
          <mxGeometry width="50" height="50" relative="1" as="geometry">
            <mxPoint x="749.86" y="640" as="sourcePoint" />
            <mxPoint x="750" y="600" as="targetPoint" />
          </mxGeometry>
        </mxCell>
        <mxCell id="KgxkDXil28p1DpwNapKy-66" value="" style="endArrow=none;dashed=1;html=1;dashPattern=1 3;strokeWidth=2;rounded=0;entryX=0;entryY=0;entryDx=0;entryDy=0;exitX=0.75;exitY=0;exitDx=0;exitDy=0;" edge="1" parent="1" source="KgxkDXil28p1DpwNapKy-39" target="KgxkDXil28p1DpwNapKy-65">
          <mxGeometry width="50" height="50" relative="1" as="geometry">
            <mxPoint x="450" y="610" as="sourcePoint" />
            <mxPoint x="500" y="560" as="targetPoint" />
            <Array as="points">
              <mxPoint x="480" y="595" />
            </Array>
          </mxGeometry>
        </mxCell>
        <mxCell id="KgxkDXil28p1DpwNapKy-79" value="" style="ellipse;whiteSpace=wrap;html=1;aspect=fixed;" vertex="1" parent="1">
          <mxGeometry x="635" y="364" width="30" height="30" as="geometry" />
        </mxCell>
        <mxCell id="KgxkDXil28p1DpwNapKy-80" value="" style="endArrow=none;html=1;rounded=0;entryX=0;entryY=0;entryDx=0;entryDy=0;endFill=0;startArrow=classic;startFill=1;" edge="1" parent="1" target="KgxkDXil28p1DpwNapKy-79">
          <mxGeometry width="50" height="50" relative="1" as="geometry">
            <mxPoint x="585" y="414" as="sourcePoint" />
            <mxPoint x="605" y="434" as="targetPoint" />
          </mxGeometry>
        </mxCell>
        <mxCell id="KgxkDXil28p1DpwNapKy-81" value="" style="endArrow=none;dashed=1;html=1;rounded=0;" edge="1" parent="1">
          <mxGeometry width="50" height="50" relative="1" as="geometry">
            <mxPoint x="649.76" y="424" as="sourcePoint" />
            <mxPoint x="649.76" y="334" as="targetPoint" />
          </mxGeometry>
        </mxCell>
        <mxCell id="KgxkDXil28p1DpwNapKy-82" value="" style="endArrow=none;dashed=1;html=1;rounded=0;" edge="1" parent="1">
          <mxGeometry width="50" height="50" relative="1" as="geometry">
            <mxPoint x="595" y="378.76" as="sourcePoint" />
            <mxPoint x="695" y="378.76" as="targetPoint" />
          </mxGeometry>
        </mxCell>
        <mxCell id="KgxkDXil28p1DpwNapKy-83" value="" style="endArrow=none;html=1;curved=1;fillColor=#f8cecc;strokeColor=#b85450;" edge="1" parent="1">
          <mxGeometry width="50" height="50" relative="1" as="geometry">
            <mxPoint x="650" y="402" as="sourcePoint" />
            <mxPoint x="616" y="388" as="targetPoint" />
            <Array as="points">
              <mxPoint x="622" y="416" />
            </Array>
          </mxGeometry>
        </mxCell>
        <mxCell id="KgxkDXil28p1DpwNapKy-84" value="&lt;font color=&quot;#ea6b66&quot;&gt;φ&lt;/font&gt;" style="text;html=1;align=center;verticalAlign=middle;resizable=0;points=[];autosize=1;" vertex="1" parent="1">
          <mxGeometry x="607" y="399" width="26" height="26" as="geometry" />
        </mxCell>
        <mxCell id="KgxkDXil28p1DpwNapKy-85" value="" style="endArrow=none;html=1;rounded=0;entryX=0.5;entryY=0;entryDx=0;entryDy=0;endFill=0;startArrow=classic;startFill=1;" edge="1" parent="1" target="KgxkDXil28p1DpwNapKy-79">
          <mxGeometry width="50" height="50" relative="1" as="geometry">
            <mxPoint x="700" y="365" as="sourcePoint" />
            <mxPoint x="784" y="394" as="targetPoint" />
          </mxGeometry>
        </mxCell>
        <mxCell id="KgxkDXil28p1DpwNapKy-86" value="F" style="text;html=1;align=center;verticalAlign=middle;resizable=0;points=[];autosize=1;strokeColor=none;fillColor=none;" vertex="1" parent="1">
          <mxGeometry x="670" y="340" width="30" height="30" as="geometry" />
        </mxCell>
        <mxCell id="KgxkDXil28p1DpwNapKy-89" value="&lt;div style=&quot;font-size: 13px;&quot;&gt;&lt;font size=&quot;1&quot;&gt;&lt;b style=&quot;font-size: 17px;&quot;&gt;Pivot angle calculation&lt;/b&gt;&lt;/font&gt;&lt;/div&gt;" style="text;html=1;align=center;verticalAlign=middle;resizable=0;points=[];autosize=1;strokeColor=#6c8ebf;fillColor=#dae8fc;" vertex="1" parent="1">
          <mxGeometry x="335" y="1153" width="220" height="35" as="geometry" />
        </mxCell>
        <mxCell id="KgxkDXil28p1DpwNapKy-95" value="" style="edgeStyle=orthogonalEdgeStyle;rounded=0;orthogonalLoop=1;jettySize=auto;html=1;" edge="1" parent="1" source="KgxkDXil28p1DpwNapKy-91" target="KgxkDXil28p1DpwNapKy-94">
          <mxGeometry relative="1" as="geometry" />
        </mxCell>
        <mxCell id="KgxkDXil28p1DpwNapKy-91" value="&lt;div&gt;Load on the&lt;/div&gt;&lt;div&gt;wire rope,&lt;/div&gt;&lt;div&gt;φ&lt;sub&gt;out,init = 0&lt;/sub&gt;&lt;br&gt;&lt;/div&gt;" style="shape=parallelogram;perimeter=parallelogramPerimeter;whiteSpace=wrap;html=1;fixedSize=1;" vertex="1" parent="1">
          <mxGeometry x="190" y="1215" width="120" height="60" as="geometry" />
        </mxCell>
        <mxCell id="KgxkDXil28p1DpwNapKy-129" style="edgeStyle=orthogonalEdgeStyle;rounded=0;orthogonalLoop=1;jettySize=auto;html=1;exitX=0.5;exitY=1;exitDx=0;exitDy=0;entryX=0.5;entryY=0;entryDx=0;entryDy=0;" edge="1" parent="1" source="KgxkDXil28p1DpwNapKy-94" target="KgxkDXil28p1DpwNapKy-120">
          <mxGeometry relative="1" as="geometry" />
        </mxCell>
        <mxCell id="KgxkDXil28p1DpwNapKy-94" value="Rope tension calculation on both sides" style="rounded=1;whiteSpace=wrap;html=1;" vertex="1" parent="1">
          <mxGeometry x="190" y="1305" width="120" height="60" as="geometry" />
        </mxCell>
        <mxCell id="KgxkDXil28p1DpwNapKy-119" value="" style="endArrow=none;dashed=1;html=1;rounded=0;entryX=0;entryY=0;entryDx=0;entryDy=0;exitX=0.75;exitY=0;exitDx=0;exitDy=0;" edge="1" parent="1" source="KgxkDXil28p1DpwNapKy-94" target="KgxkDXil28p1DpwNapKy-118">
          <mxGeometry width="50" height="50" relative="1" as="geometry">
            <mxPoint x="345" y="1325" as="sourcePoint" />
            <mxPoint x="395" y="1275" as="targetPoint" />
            <Array as="points">
              <mxPoint x="345" y="1280" />
            </Array>
          </mxGeometry>
        </mxCell>
        <mxCell id="KgxkDXil28p1DpwNapKy-127" style="edgeStyle=orthogonalEdgeStyle;rounded=0;orthogonalLoop=1;jettySize=auto;html=1;exitX=1;exitY=0.5;exitDx=0;exitDy=0;entryX=0;entryY=0.5;entryDx=0;entryDy=0;" edge="1" parent="1" source="KgxkDXil28p1DpwNapKy-120" target="KgxkDXil28p1DpwNapKy-124">
          <mxGeometry relative="1" as="geometry" />
        </mxCell>
        <mxCell id="KgxkDXil28p1DpwNapKy-133" style="edgeStyle=orthogonalEdgeStyle;rounded=0;orthogonalLoop=1;jettySize=auto;html=1;" edge="1" parent="1" source="KgxkDXil28p1DpwNapKy-120" target="KgxkDXil28p1DpwNapKy-131">
          <mxGeometry relative="1" as="geometry" />
        </mxCell>
        <mxCell id="KgxkDXil28p1DpwNapKy-120" value="any F &lt;br&gt;&lt;div&gt;&amp;gt;&lt;/div&gt;&lt;div&gt;F&lt;sub&gt;max&lt;/sub&gt;&lt;br&gt;&lt;/div&gt;" style="rhombus;whiteSpace=wrap;html=1;" vertex="1" parent="1">
          <mxGeometry x="210" y="1385" width="80" height="80" as="geometry" />
        </mxCell>
        <mxCell id="KgxkDXil28p1DpwNapKy-125" style="edgeStyle=orthogonalEdgeStyle;rounded=0;orthogonalLoop=1;jettySize=auto;html=1;entryX=1;entryY=0.5;entryDx=0;entryDy=0;" edge="1" parent="1" source="KgxkDXil28p1DpwNapKy-124" target="KgxkDXil28p1DpwNapKy-94">
          <mxGeometry relative="1" as="geometry">
            <Array as="points">
              <mxPoint x="365" y="1335" />
            </Array>
          </mxGeometry>
        </mxCell>
        <mxCell id="KgxkDXil28p1DpwNapKy-124" value="&lt;div&gt;increase pivot&lt;/div&gt;&lt;div&gt;angle&lt;br&gt;&lt;/div&gt;" style="rounded=1;whiteSpace=wrap;html=1;" vertex="1" parent="1">
          <mxGeometry x="320" y="1405" width="95" height="40" as="geometry" />
        </mxCell>
        <mxCell id="KgxkDXil28p1DpwNapKy-97" value="" style="ellipse;whiteSpace=wrap;html=1;aspect=fixed;fillColor=none;points=[[0,0,0,0,0],[0,0.5,0,0,0],[0,0.5,0,15,0],[0,1,0,0,0],[0.5,0,0,0,0],[0.5,1,0,0,0],[1,0,0,0,0],[1,0.5,0,0,0],[1,1,0,0,0]];rotation=-385;" vertex="1" parent="1">
          <mxGeometry x="505" y="1335" width="30" height="30" as="geometry" />
        </mxCell>
        <mxCell id="KgxkDXil28p1DpwNapKy-98" value="" style="ellipse;whiteSpace=wrap;html=1;aspect=fixed;fillColor=none;points=[[0,0,0,0,0],[0,0.5,0,0,0],[0,0.5,0,15,0],[0,1,0,0,0],[0.5,0,0,0,0],[0.5,1,0,0,0],[1,0,0,0,0],[1,0.5,0,0,0],[1,1,0,0,0]];rotation=-385;" vertex="1" parent="1">
          <mxGeometry x="548" y="1315" width="30" height="30" as="geometry" />
        </mxCell>
        <mxCell id="KgxkDXil28p1DpwNapKy-99" value="" style="endArrow=none;html=1;rounded=0;entryX=0;entryY=0.5;entryDx=15;entryDy=0;entryPerimeter=0;strokeWidth=3;exitX=0;exitY=0.5;exitDx=15;exitDy=0;exitPerimeter=0;" edge="1" parent="1" source="KgxkDXil28p1DpwNapKy-98" target="KgxkDXil28p1DpwNapKy-97">
          <mxGeometry width="50" height="50" relative="1" as="geometry">
            <mxPoint x="553" y="1334" as="sourcePoint" />
            <mxPoint x="484" y="1365" as="targetPoint" />
          </mxGeometry>
        </mxCell>
        <mxCell id="KgxkDXil28p1DpwNapKy-113" value="" style="endArrow=none;html=1;rounded=0;entryX=0.574;entryY=-0.015;entryDx=0;entryDy=0;entryPerimeter=0;exitX=0.5;exitY=0;exitDx=0;exitDy=0;exitPerimeter=0;" edge="1" parent="1" source="KgxkDXil28p1DpwNapKy-97" target="KgxkDXil28p1DpwNapKy-98">
          <mxGeometry width="50" height="50" relative="1" as="geometry">
            <mxPoint x="440" y="1360" as="sourcePoint" />
            <mxPoint x="490" y="1310" as="targetPoint" />
          </mxGeometry>
        </mxCell>
        <mxCell id="KgxkDXil28p1DpwNapKy-106" value="" style="endArrow=none;dashed=1;html=1;dashPattern=1 4;strokeWidth=1;rounded=0;strokeColor=#7EA6E0;" edge="1" parent="1">
          <mxGeometry width="50" height="50" relative="1" as="geometry">
            <mxPoint x="595" y="1355" as="sourcePoint" />
            <mxPoint x="595" y="1285" as="targetPoint" />
          </mxGeometry>
        </mxCell>
        <mxCell id="KgxkDXil28p1DpwNapKy-107" value="" style="endArrow=none;html=1;rounded=0;entryX=0.735;entryY=0.052;entryDx=0;entryDy=0;entryPerimeter=0;exitX=0.5;exitY=0;exitDx=0;exitDy=0;exitPerimeter=0;" edge="1" parent="1" source="KgxkDXil28p1DpwNapKy-98" target="KgxkDXil28p1DpwNapKy-110">
          <mxGeometry width="50" height="50" relative="1" as="geometry">
            <mxPoint x="445" y="1325" as="sourcePoint" />
            <mxPoint x="601.8840915564514" y="1303.6059952250969" as="targetPoint" />
          </mxGeometry>
        </mxCell>
        <mxCell id="KgxkDXil28p1DpwNapKy-108" value="" style="endArrow=classic;html=1;rounded=0;exitX=0.5;exitY=0;exitDx=0;exitDy=0;exitPerimeter=0;fillColor=#f8cecc;strokeColor=#b85450;" edge="1" parent="1" source="KgxkDXil28p1DpwNapKy-98">
          <mxGeometry width="50" height="50" relative="1" as="geometry">
            <mxPoint x="555" y="1315" as="sourcePoint" />
            <mxPoint x="585" y="1316" as="targetPoint" />
          </mxGeometry>
        </mxCell>
        <mxCell id="KgxkDXil28p1DpwNapKy-110" value="" style="ellipse;whiteSpace=wrap;html=1;aspect=fixed;fillColor=none;points=[[0,0,0,0,0],[0,0.5,0,0,0],[0,0.5,0,15,0],[0,1,0,0,0],[0.5,0,0,0,0],[0.5,1,0,0,0],[1,0,0,0,0],[1,0.5,0,0,0],[1,1,0,0,0]];rotation=-385;" vertex="1" parent="1">
          <mxGeometry x="610" y="1315" width="30" height="30" as="geometry" />
        </mxCell>
        <mxCell id="KgxkDXil28p1DpwNapKy-111" value="" style="ellipse;whiteSpace=wrap;html=1;aspect=fixed;fillColor=none;points=[[0,0,0,0,0],[0,0.5,0,0,0],[0,0.5,0,15,0],[0,1,0,0,0],[0.5,0,0,0,0],[0.5,1,0,0,0],[1,0,0,0,0],[1,0.5,0,0,0],[1,1,0,0,0]];rotation=-385;" vertex="1" parent="1">
          <mxGeometry x="653" y="1335" width="30" height="30" as="geometry" />
        </mxCell>
        <mxCell id="KgxkDXil28p1DpwNapKy-112" value="" style="endArrow=none;html=1;rounded=0;entryX=0;entryY=0.5;entryDx=15;entryDy=0;entryPerimeter=0;strokeWidth=3;exitX=0;exitY=0.5;exitDx=15;exitDy=0;exitPerimeter=0;" edge="1" parent="1" source="KgxkDXil28p1DpwNapKy-111" target="KgxkDXil28p1DpwNapKy-110">
          <mxGeometry width="50" height="50" relative="1" as="geometry">
            <mxPoint x="658" y="1346" as="sourcePoint" />
            <mxPoint x="589" y="1315" as="targetPoint" />
          </mxGeometry>
        </mxCell>
        <mxCell id="KgxkDXil28p1DpwNapKy-117" value="&lt;div style=&quot;font-size: 8px;&quot;&gt;&lt;font style=&quot;font-size: 8px;&quot;&gt;&quot;Both sides&quot;&lt;/font&gt;&lt;/div&gt;&lt;div style=&quot;font-size: 8px;&quot;&gt;&lt;font style=&quot;font-size: 8px;&quot;&gt;means to calculate &lt;br&gt;&lt;/font&gt;&lt;/div&gt;&lt;div style=&quot;font-size: 8px;&quot;&gt;&lt;font style=&quot;font-size: 8px;&quot;&gt;both F1 and F2&lt;font style=&quot;font-size: 8px;&quot;&gt;&lt;br&gt;&lt;/font&gt;&lt;/font&gt;&lt;/div&gt;" style="text;html=1;align=center;verticalAlign=middle;resizable=0;points=[];autosize=1;strokeColor=none;fillColor=none;" vertex="1" parent="1">
          <mxGeometry x="555" y="1345" width="80" height="45" as="geometry" />
        </mxCell>
        <mxCell id="KgxkDXil28p1DpwNapKy-118" value="" style="rounded=0;whiteSpace=wrap;html=1;fillColor=none;dashed=1;" vertex="1" parent="1">
          <mxGeometry x="500" y="1280" width="200" height="105" as="geometry" />
        </mxCell>
        <mxCell id="KgxkDXil28p1DpwNapKy-114" value="" style="endArrow=classic;html=1;rounded=0;exitX=0.5;exitY=0;exitDx=0;exitDy=0;exitPerimeter=0;fillColor=#f8cecc;strokeColor=#b85450;" edge="1" parent="1" source="KgxkDXil28p1DpwNapKy-97">
          <mxGeometry width="50" height="50" relative="1" as="geometry">
            <mxPoint x="455" y="1340" as="sourcePoint" />
            <mxPoint x="535" y="1325" as="targetPoint" />
          </mxGeometry>
        </mxCell>
        <mxCell id="KgxkDXil28p1DpwNapKy-115" value="F&lt;sub&gt;1&lt;/sub&gt;" style="text;html=1;align=center;verticalAlign=middle;resizable=0;points=[];autosize=1;strokeColor=none;fillColor=none;" vertex="1" parent="1">
          <mxGeometry x="500" y="1300" width="35" height="35" as="geometry" />
        </mxCell>
        <mxCell id="KgxkDXil28p1DpwNapKy-116" value="F&lt;sub&gt;2&lt;/sub&gt;" style="text;html=1;align=center;verticalAlign=middle;resizable=0;points=[];autosize=1;strokeColor=none;fillColor=none;" vertex="1" parent="1">
          <mxGeometry x="560" y="1285" width="35" height="35" as="geometry" />
        </mxCell>
        <mxCell id="KgxkDXil28p1DpwNapKy-128" value="Yes" style="text;html=1;align=center;verticalAlign=middle;resizable=0;points=[];autosize=1;strokeColor=none;fillColor=none;" vertex="1" parent="1">
          <mxGeometry x="280" y="1395" width="40" height="30" as="geometry" />
        </mxCell>
        <mxCell id="KgxkDXil28p1DpwNapKy-135" style="edgeStyle=orthogonalEdgeStyle;rounded=0;orthogonalLoop=1;jettySize=auto;html=1;" edge="1" parent="1" source="KgxkDXil28p1DpwNapKy-131" target="KgxkDXil28p1DpwNapKy-134">
          <mxGeometry relative="1" as="geometry" />
        </mxCell>
        <mxCell id="KgxkDXil28p1DpwNapKy-131" value="&lt;div&gt;Calculate surface &lt;br&gt;&lt;/div&gt;&lt;div&gt;pressure on sheaves&lt;br&gt;&lt;/div&gt;" style="rounded=1;whiteSpace=wrap;html=1;" vertex="1" parent="1">
          <mxGeometry x="190" y="1485" width="120" height="60" as="geometry" />
        </mxCell>
        <mxCell id="KgxkDXil28p1DpwNapKy-137" style="edgeStyle=orthogonalEdgeStyle;rounded=0;orthogonalLoop=1;jettySize=auto;html=1;exitX=1;exitY=0.5;exitDx=0;exitDy=0;entryX=0;entryY=0.5;entryDx=0;entryDy=0;" edge="1" parent="1" source="KgxkDXil28p1DpwNapKy-134" target="KgxkDXil28p1DpwNapKy-136">
          <mxGeometry relative="1" as="geometry" />
        </mxCell>
        <mxCell id="KgxkDXil28p1DpwNapKy-153" style="edgeStyle=orthogonalEdgeStyle;rounded=0;orthogonalLoop=1;jettySize=auto;html=1;entryX=0.5;entryY=0;entryDx=0;entryDy=0;" edge="1" parent="1" source="KgxkDXil28p1DpwNapKy-134" target="KgxkDXil28p1DpwNapKy-151">
          <mxGeometry relative="1" as="geometry" />
        </mxCell>
        <mxCell id="KgxkDXil28p1DpwNapKy-134" value="any P &lt;br&gt;&lt;div&gt;&amp;gt;&lt;/div&gt;&lt;div&gt;P&lt;sub&gt;max&lt;/sub&gt;&lt;br&gt;&lt;/div&gt;" style="rhombus;whiteSpace=wrap;html=1;" vertex="1" parent="1">
          <mxGeometry x="210" y="1565" width="80" height="80" as="geometry" />
        </mxCell>
        <mxCell id="KgxkDXil28p1DpwNapKy-136" value="End" style="ellipse;whiteSpace=wrap;html=1;" vertex="1" parent="1">
          <mxGeometry x="325" y="1580" width="85" height="50" as="geometry" />
        </mxCell>
        <mxCell id="KgxkDXil28p1DpwNapKy-138" value="No" style="text;html=1;align=center;verticalAlign=middle;resizable=0;points=[];autosize=1;strokeColor=none;fillColor=none;" vertex="1" parent="1">
          <mxGeometry x="290" y="1575" width="35" height="30" as="geometry" />
        </mxCell>
        <mxCell id="KgxkDXil28p1DpwNapKy-147" style="edgeStyle=orthogonalEdgeStyle;rounded=0;orthogonalLoop=1;jettySize=auto;html=1;entryX=0.5;entryY=0;entryDx=0;entryDy=0;" edge="1" parent="1" source="KgxkDXil28p1DpwNapKy-139" target="KgxkDXil28p1DpwNapKy-144">
          <mxGeometry relative="1" as="geometry" />
        </mxCell>
        <mxCell id="KgxkDXil28p1DpwNapKy-139" value="&lt;div&gt;Add sheave &lt;br&gt;&lt;/div&gt;&lt;div&gt;stage&lt;/div&gt;" style="rounded=1;whiteSpace=wrap;html=1;" vertex="1" parent="1">
          <mxGeometry x="190" y="1845" width="120" height="60" as="geometry" />
        </mxCell>
        <mxCell id="KgxkDXil28p1DpwNapKy-165" style="edgeStyle=orthogonalEdgeStyle;rounded=0;orthogonalLoop=1;jettySize=auto;html=1;entryX=0;entryY=0.5;entryDx=0;entryDy=0;" edge="1" parent="1" source="KgxkDXil28p1DpwNapKy-144" target="KgxkDXil28p1DpwNapKy-94">
          <mxGeometry relative="1" as="geometry">
            <Array as="points">
              <mxPoint x="110" y="1972.5" />
              <mxPoint x="110" y="1335" />
            </Array>
          </mxGeometry>
        </mxCell>
        <mxCell id="KgxkDXil28p1DpwNapKy-166" value="&lt;div&gt;For ALL &lt;br&gt;&lt;/div&gt;&lt;div&gt;stages&lt;br&gt;&lt;/div&gt;" style="edgeLabel;html=1;align=center;verticalAlign=middle;resizable=0;points=[];" vertex="1" connectable="0" parent="KgxkDXil28p1DpwNapKy-165">
          <mxGeometry x="-0.1864" y="-3" relative="1" as="geometry">
            <mxPoint x="-3" y="-113" as="offset" />
          </mxGeometry>
        </mxCell>
        <mxCell id="KgxkDXil28p1DpwNapKy-144" value="&lt;div&gt;Init new state pivot angle to 0. &lt;br&gt;&lt;/div&gt;&lt;div&gt;Half old stages pivot&lt;/div&gt;&lt;div&gt;angles&lt;br&gt;&lt;/div&gt;" style="rounded=1;whiteSpace=wrap;html=1;" vertex="1" parent="1">
          <mxGeometry x="190" y="1930" width="120" height="85" as="geometry" />
        </mxCell>
        <mxCell id="KgxkDXil28p1DpwNapKy-154" style="edgeStyle=orthogonalEdgeStyle;rounded=0;orthogonalLoop=1;jettySize=auto;html=1;entryX=0.5;entryY=0;entryDx=0;entryDy=0;" edge="1" parent="1" source="KgxkDXil28p1DpwNapKy-151" target="KgxkDXil28p1DpwNapKy-139">
          <mxGeometry relative="1" as="geometry" />
        </mxCell>
        <mxCell id="KgxkDXil28p1DpwNapKy-159" style="edgeStyle=orthogonalEdgeStyle;rounded=0;orthogonalLoop=1;jettySize=auto;html=1;" edge="1" parent="1" source="KgxkDXil28p1DpwNapKy-151" target="KgxkDXil28p1DpwNapKy-158">
          <mxGeometry relative="1" as="geometry" />
        </mxCell>
        <mxCell id="KgxkDXil28p1DpwNapKy-151" value="&lt;div&gt;&lt;br&gt;&lt;/div&gt;&lt;div&gt;F@P&lt;sub&gt;faulty&lt;/sub&gt;&lt;/div&gt;&lt;div&gt;&lt;sub&gt;&amp;nbsp;&lt;/sub&gt;&amp;lt;&lt;/div&gt;&lt;div&gt;F&lt;sub&gt;max&lt;/sub&gt; &lt;br&gt;&lt;/div&gt;" style="rhombus;whiteSpace=wrap;html=1;" vertex="1" parent="1">
          <mxGeometry x="203.13" y="1705" width="93.75" height="85" as="geometry" />
        </mxCell>
        <mxCell id="KgxkDXil28p1DpwNapKy-152" value="&lt;div&gt;&lt;i&gt;&lt;b&gt;Strength Check&lt;/b&gt;&lt;/i&gt;&lt;/div&gt;&lt;div&gt;&lt;i&gt;&lt;b&gt;Function&lt;/b&gt;&lt;/i&gt;&lt;br&gt;&lt;/div&gt;" style="text;html=1;align=center;verticalAlign=middle;resizable=0;points=[];autosize=1;strokeColor=none;fillColor=none;" vertex="1" parent="1">
          <mxGeometry x="320" y="1655" width="115" height="45" as="geometry" />
        </mxCell>
        <mxCell id="KgxkDXil28p1DpwNapKy-155" value="Yes" style="text;html=1;align=center;verticalAlign=middle;resizable=0;points=[];autosize=1;strokeColor=none;fillColor=none;" vertex="1" parent="1">
          <mxGeometry x="285" y="1720" width="40" height="30" as="geometry" />
        </mxCell>
        <mxCell id="KgxkDXil28p1DpwNapKy-157" value="No" style="text;html=1;align=center;verticalAlign=middle;resizable=0;points=[];autosize=1;strokeColor=none;fillColor=none;" vertex="1" parent="1">
          <mxGeometry x="215" y="1795" width="35" height="30" as="geometry" />
        </mxCell>
        <mxCell id="KgxkDXil28p1DpwNapKy-162" style="edgeStyle=orthogonalEdgeStyle;rounded=0;orthogonalLoop=1;jettySize=auto;html=1;entryX=1;entryY=0.5;entryDx=0;entryDy=0;" edge="1" parent="1" source="KgxkDXil28p1DpwNapKy-158" target="KgxkDXil28p1DpwNapKy-94">
          <mxGeometry relative="1" as="geometry">
            <Array as="points">
              <mxPoint x="485" y="1747" />
              <mxPoint x="485" y="1335" />
            </Array>
          </mxGeometry>
        </mxCell>
        <mxCell id="KgxkDXil28p1DpwNapKy-158" value="Decrease pivot angle at this stage" style="rounded=1;whiteSpace=wrap;html=1;" vertex="1" parent="1">
          <mxGeometry x="325" y="1717.5" width="120" height="60" as="geometry" />
        </mxCell>
        <mxCell id="KgxkDXil28p1DpwNapKy-163" value="&lt;div&gt;Essentially, when a stage has problems &lt;br&gt;&lt;/div&gt;&lt;div&gt;with contact pressure, we are checking &lt;br&gt;&lt;/div&gt;&lt;div&gt;whether it can &quot;afford&quot; a smaller pivot&lt;/div&gt;&lt;div&gt;angle in terms of wire rope tension. &lt;br&gt;&lt;/div&gt;&lt;div&gt;Then we check the whole structure again,&lt;/div&gt;&lt;div&gt;since the change will affect the next stage&lt;br&gt;&lt;/div&gt;" style="text;html=1;align=center;verticalAlign=middle;resizable=0;points=[];autosize=1;fillColor=#f5f5f5;fontColor=#333333;strokeColor=#000000;dashed=1;" vertex="1" parent="1">
          <mxGeometry x="535" y="1705" width="265" height="100" as="geometry" />
        </mxCell>
        <mxCell id="KgxkDXil28p1DpwNapKy-164" value="" style="endArrow=none;dashed=1;html=1;dashPattern=1 3;strokeWidth=2;rounded=0;exitX=1;exitY=1;exitDx=0;exitDy=0;entryX=-0.003;entryY=0.975;entryDx=0;entryDy=0;entryPerimeter=0;" edge="1" parent="1" source="KgxkDXil28p1DpwNapKy-158" target="KgxkDXil28p1DpwNapKy-163">
          <mxGeometry width="50" height="50" relative="1" as="geometry">
            <mxPoint x="710" y="1905" as="sourcePoint" />
            <mxPoint x="760" y="1855" as="targetPoint" />
            <Array as="points">
              <mxPoint x="480" y="1803" />
            </Array>
          </mxGeometry>
        </mxCell>
      </root>
    </mxGraphModel>
  </diagram>
</mxfile>
